Desktop/ProyectoFinal/simulation/qsim/ContadorGray.msim.vcd
$comment
	File created using the following command:
		vcd file ContadorGray.msim.vcd -direction
$end
$date
	Fri Apr 23 14:34:06 2021
$end
$version
	ModelSim Version 10.5b
$end
$timescale
	1ps
$end

$scope module contadorgray_vhd_vec_tst $end
$var wire 1 ! BIN [3] $end
$var wire 1 " BIN [2] $end
$var wire 1 # BIN [1] $end
$var wire 1 $ BIN [0] $end
$var wire 1 % clk $end
$var wire 1 & est [3] $end
$var wire 1 ' est [2] $end
$var wire 1 ( est [1] $end
$var wire 1 ) est [0] $end
$var wire 1 * fin $end
$var wire 1 + GRAY [3] $end
$var wire 1 , GRAY [2] $end
$var wire 1 - GRAY [1] $end
$var wire 1 . GRAY [0] $end
$var wire 1 / resetn $end
$var wire 1 0 start $end

$scope module i1 $end
$var wire 1 1 gnd $end
$var wire 1 2 vcc $end
$var wire 1 3 unknown $end
$var wire 1 4 devoe $end
$var wire 1 5 devclrn $end
$var wire 1 6 devpor $end
$var wire 1 7 ww_devoe $end
$var wire 1 8 ww_devclrn $end
$var wire 1 9 ww_devpor $end
$var wire 1 : ww_fin $end
$var wire 1 ; ww_resetn $end
$var wire 1 < ww_clk $end
$var wire 1 = ww_start $end
$var wire 1 > ww_BIN [3] $end
$var wire 1 ? ww_BIN [2] $end
$var wire 1 @ ww_BIN [1] $end
$var wire 1 A ww_BIN [0] $end
$var wire 1 B ww_est [3] $end
$var wire 1 C ww_est [2] $end
$var wire 1 D ww_est [1] $end
$var wire 1 E ww_est [0] $end
$var wire 1 F ww_GRAY [3] $end
$var wire 1 G ww_GRAY [2] $end
$var wire 1 H ww_GRAY [1] $end
$var wire 1 I ww_GRAY [0] $end
$var wire 1 J \~QUARTUS_CREATED_GND~I_combout\ $end
$var wire 1 K \clk~input_o\ $end
$var wire 1 L \clk~inputCLKENA0_outclk\ $end
$var wire 1 M \start~input_o\ $end
$var wire 1 N \inst4|y~12_combout\ $end
$var wire 1 O \resetn~input_o\ $end
$var wire 1 P \inst4|y.s1~q\ $end
$var wire 1 Q \inst4|Selector1~0_combout\ $end
$var wire 1 R \inst4|y.s2~q\ $end
$var wire 1 S \inst4|Selector0~0_combout\ $end
$var wire 1 T \inst4|y.s0~q\ $end
$var wire 1 U \inst4|resetgn~0_combout\ $end
$var wire 1 V \inst|q[2]~DUPLICATE_q\ $end
$var wire 1 W \inst|q[3]~0_combout\ $end
$var wire 1 X \inst|q[1]~2_combout\ $end
$var wire 1 Y \inst|q[3]~DUPLICATE_q\ $end
$var wire 1 Z \inst|q[2]~1_combout\ $end
$var wire 1 [ \inst|q[0]~3_combout\ $end
$var wire 1 \ \inst5|Equal0~0_combout\ $end
$var wire 1 ] \inst4|est~0_combout\ $end
$var wire 1 ^ \inst4|est~1_combout\ $end
$var wire 1 _ \inst|Add0~0_combout\ $end
$var wire 1 ` \inst|q\ [3] $end
$var wire 1 a \inst|q\ [2] $end
$var wire 1 b \inst|q\ [1] $end
$var wire 1 c \inst|q\ [0] $end
$var wire 1 d \inst7|S\ [3] $end
$var wire 1 e \inst7|S\ [2] $end
$var wire 1 f \inst7|S\ [1] $end
$var wire 1 g \inst7|S\ [0] $end
$var wire 1 h \inst|ALT_INV_q\ [3] $end
$var wire 1 i \inst|ALT_INV_q\ [2] $end
$var wire 1 j \inst|ALT_INV_q\ [1] $end
$var wire 1 k \inst|ALT_INV_q\ [0] $end
$var wire 1 l \inst5|ALT_INV_Equal0~0_combout\ $end
$var wire 1 m \inst4|ALT_INV_y.s0~q\ $end
$var wire 1 n \inst4|ALT_INV_y.s1~q\ $end
$var wire 1 o \inst4|ALT_INV_est~0_combout\ $end
$var wire 1 p \inst4|ALT_INV_est~1_combout\ $end
$var wire 1 q \inst4|ALT_INV_y.s2~q\ $end
$var wire 1 r \inst4|ALT_INV_resetgn~0_combout\ $end
$var wire 1 s \ALT_INV_resetn~input_o\ $end
$var wire 1 t \ALT_INV_start~input_o\ $end
$var wire 1 u \inst|ALT_INV_q[3]~DUPLICATE_q\ $end
$var wire 1 v \inst|ALT_INV_q[2]~DUPLICATE_q\ $end
$upscope $end
$upscope $end
$enddefinitions $end
#0
$dumpvars
1%
0*
1/
00
01
12
x3
14
15
16
17
18
19
0:
1;
1<
0=
xJ
1K
1L
0M
0N
1O
0P
0Q
0R
0S
0T
1U
0V
0W
0X
0Y
0Z
0[
1\
1]
1^
0_
0l
1m
1n
0o
0p
1q
0r
0s
1t
1u
1v
0>
0?
0@
0A
0B
0C
0D
0E
0F
0G
0H
0I
0`
0a
0b
0c
xd
0e
0f
xg
1h
1i
1j
1k
0!
0"
0#
0$
0&
0'
0(
0)
0+
0,
0-
0.
$end
#5000
0%
0<
0K
0L
#10000
1%
1<
1K
1L
#15000
0%
0<
0K
0L
#20000
1%
1<
1K
1L
#25000
0%
0<
0K
0L
#30000
1%
0/
1<
0;
0O
1K
1L
1s
0U
1r
#35000
0%
0<
0K
0L
#40000
1%
10
1<
1=
1M
1K
1L
0t
1N
1S
1U
0r
#45000
0%
0<
0K
0L
#50000
1%
1<
1K
1L
1P
1T
0m
0n
0U
0^
1p
1r
1E
1)
#55000
0%
0<
0K
0L
#60000
1%
00
1<
0=
0M
1K
1L
1t
0N
1Q
#65000
0%
0<
0K
0L
#70000
1%
1<
1K
1L
0P
1R
0q
1n
0]
1[
1^
0p
1o
1D
0E
0)
1(
#75000
0%
0<
0K
0L
#80000
1%
1<
1K
1L
1c
0k
1X
0[
1_
1A
1$
1I
1.
#85000
0%
0<
0K
0L
#90000
1%
1<
1K
1L
1b
0c
1k
0j
1f
1[
0A
1@
0$
1#
1H
1-
#95000
0%
0<
0K
0L
#100000
1%
10
1<
1=
1M
1K
1L
0t
1c
0k
0X
1Z
0[
0_
1A
1$
0I
0.
#105000
0%
0<
0K
0L
#110000
1%
1<
1K
1L
1V
0b
1a
0c
1k
0i
1j
0v
1e
1[
0A
0@
1?
0$
0#
1"
1G
1,
#115000
0%
0<
0K
0L
#120000
1%
00
1<
0=
0M
1K
1L
1t
1c
0k
1X
0[
1_
1A
1$
1I
1.
#125000
0%
0<
0K
0L
#130000
1%
1<
1K
1L
1b
0c
1k
0j
0f
1[
0A
1@
0$
1#
0H
0-
#135000
0%
0<
0K
0L
#140000
1%
1<
1K
1L
1c
0k
1W
0X
0Z
0[
0_
1A
1$
0I
0.
#145000
0%
0<
0K
0L
#150000
1%
1<
1K
1L
0V
1`
0b
1Y
0a
0c
1k
1i
0u
1j
0h
1v
1[
0A
1>
1F
0@
0?
0$
0#
0"
1!
1+
#155000
0%
0<
0K
0L
#160000
1%
1<
1K
1L
1c
0k
1X
0[
1_
1A
1$
1I
1.
#165000
0%
0<
0K
0L
#170000
1%
1<
1K
1L
1b
0c
1k
0j
1f
1[
0A
1@
0$
1#
1H
1-
#175000
0%
0<
0K
0L
#180000
1%
1<
1K
1L
1c
0k
0X
1Z
0[
0_
1A
1$
0I
0.
#185000
0%
0<
0K
0L
#190000
1%
1<
1K
1L
1V
0b
1a
0c
1k
0i
1j
0v
0e
1[
0A
0@
1?
0$
0#
1"
0G
0,
#195000
0%
0<
0K
0L
#200000
1%
1<
1K
1L
1c
0k
1X
0[
1_
1A
1$
1I
1.
#205000
0%
0<
0K
0L
#210000
1%
1<
1K
1L
1b
0c
1k
0j
0f
1[
0A
1@
0$
1#
0H
0-
#215000
0%
0<
0K
0L
#220000
1%
1<
1K
1L
1c
0k
0\
0_
1l
1A
0Q
1$
0I
1:
0.
1*
#225000
0%
0<
0K
0L
#230000
1%
1<
1K
1L
0R
1q
0S
0^
1p
1E
1)
#235000
0%
0<
0K
0L
#240000
1%
1<
1K
1L
0T
1m
1]
1^
0p
0o
0D
0E
0)
0(
#245000
0%
0<
0K
0L
#250000
1%
1<
1K
1L
#255000
0%
0<
0K
0L
#260000
1%
1<
1K
1L
#265000
0%
0<
0K
0L
#270000
1%
1<
1K
1L
#275000
0%
0<
0K
0L
#280000
1%
1<
1K
1L
#285000
0%
0<
0K
0L
#290000
1%
1<
1K
1L
#295000
0%
0<
0K
0L
#300000
1%
1<
1K
1L
#305000
0%
0<
0K
0L
#310000
1%
1<
1K
1L
#315000
0%
0<
0K
0L
#320000
1%
1<
1K
1L
#325000
0%
0<
0K
0L
#330000
1%
1<
1K
1L
#335000
0%
0<
0K
0L
#340000
1%
1<
1K
1L
#345000
0%
0<
0K
0L
#350000
1%
1<
1K
1L
#355000
0%
0<
0K
0L
#360000
1%
1<
1K
1L
#365000
0%
0<
0K
0L
#370000
1%
1<
1K
1L
#375000
0%
0<
0K
0L
#380000
1%
1<
1K
1L
#385000
0%
0<
0K
0L
#390000
1%
1<
1K
1L
#395000
0%
0<
0K
0L
#400000
1%
10
1<
1=
1M
1K
1L
0t
1N
1S
1U
0r
0V
0`
0b
0Y
0a
0c
1k
1i
1u
1j
1h
1v
0W
0X
0Z
0[
1\
0l
0A
0>
0F
0@
0?
0$
0#
0"
0!
0+
0:
0*
#405000
0%
0<
0K
0L
#410000
1%
1<
1K
1L
1P
1T
0m
0n
0U
0^
1p
1r
1E
1)
#415000
0%
0<
0K
0L
#420000
1%
00
1<
0=
0M
1K
1L
1t
0N
1Q
#425000
0%
0<
0K
0L
#430000
1%
1<
1K
1L
0P
1R
0q
1n
0]
1[
1^
0p
1o
1D
0E
0)
1(
#435000
0%
0<
0K
0L
#440000
1%
1<
1K
1L
1c
0k
1X
0[
1_
1A
1$
1I
1.
#445000
0%
0<
0K
0L
#450000
1%
1<
1K
1L
1b
0c
1k
0j
1f
1[
0A
1@
0$
1#
1H
1-
#455000
0%
0<
0K
0L
#460000
1%
1<
1K
1L
1c
0k
0X
1Z
0[
0_
1A
1$
0I
0.
#465000
0%
0<
0K
0L
#470000
1%
1<
1K
1L
1V
0b
1a
0c
1k
0i
1j
0v
1e
1[
0A
0@
1?
0$
0#
1"
1G
1,
#475000
0%
0<
0K
0L
#480000
1%
1<
1K
1L
1c
0k
1X
0[
1_
1A
1$
1I
1.
#485000
0%
0<
0K
0L
#490000
1%
1<
1K
1L
1b
0c
1k
0j
0f
1[
0A
1@
0$
1#
0H
0-
#495000
0%
0<
0K
0L
#500000
1%
1<
1K
1L
1c
0k
1W
0X
0Z
0[
0_
1A
1$
0I
0.
#505000
0%
0<
0K
0L
#510000
1%
1<
1K
1L
0V
1`
0b
1Y
0a
0c
1k
1i
0u
1j
0h
1v
1[
0A
1>
1F
0@
0?
0$
0#
0"
1!
1+
#515000
0%
0<
0K
0L
#520000
1%
1<
1K
1L
1c
0k
1X
0[
1_
1A
1$
1I
1.
#525000
0%
0<
0K
0L
#530000
1%
1<
1K
1L
1b
0c
1k
0j
1f
1[
0A
1@
0$
1#
1H
1-
#535000
0%
0<
0K
0L
#540000
1%
1<
1K
1L
1c
0k
0X
1Z
0[
0_
1A
1$
0I
0.
#545000
0%
0<
0K
0L
#550000
1%
1<
1K
1L
1V
0b
1a
0c
1k
0i
1j
0v
0e
1[
0A
0@
1?
0$
0#
1"
0G
0,
#555000
0%
0<
0K
0L
#560000
1%
1<
1K
1L
1c
0k
1X
0[
1_
1A
1$
1I
1.
#565000
0%
0<
0K
0L
#570000
1%
1<
1K
1L
1b
0c
1k
0j
0f
1[
0A
1@
0$
1#
0H
0-
#575000
0%
0<
0K
0L
#580000
1%
1<
1K
1L
1c
0k
0\
0_
1l
1A
0Q
1$
0I
1:
0.
1*
#585000
0%
0<
0K
0L
#590000
1%
1<
1K
1L
0R
1q
0S
0^
1p
1E
1)
#595000
0%
0<
0K
0L
#600000
1%
1<
1K
1L
0T
1m
1]
1^
0p
0o
0D
0E
0)
0(
#605000
0%
0<
0K
0L
#610000
1%
1<
1K
1L
#615000
0%
0<
0K
0L
#620000
1%
1<
1K
1L
#625000
0%
0<
0K
0L
#630000
1%
1<
1K
1L
#635000
0%
0<
0K
0L
#640000
1%
1<
1K
1L
#645000
0%
0<
0K
0L
#650000
1%
1<
1K
1L
#655000
0%
0<
0K
0L
#660000
1%
1<
1K
1L
#665000
0%
0<
0K
0L
#670000
1%
1<
1K
1L
#675000
0%
0<
0K
0L
#680000
1%
1<
1K
1L
#685000
0%
0<
0K
0L
#690000
1%
1<
1K
1L
#695000
0%
0<
0K
0L
#700000
1%
1<
1K
1L
#705000
0%
0<
0K
0L
#710000
1%
1<
1K
1L
#715000
0%
0<
0K
0L
#720000
1%
1<
1K
1L
#725000
0%
0<
0K
0L
#730000
1%
1<
1K
1L
#735000
0%
0<
0K
0L
#740000
1%
1<
1K
1L
#745000
0%
0<
0K
0L
#750000
1%
1<
1K
1L
#755000
0%
0<
0K
0L
#760000
1%
1<
1K
1L
#765000
0%
0<
0K
0L
#770000
1%
1<
1K
1L
#775000
0%
0<
0K
0L
#780000
1%
1<
1K
1L
#785000
0%
0<
0K
0L
#790000
1%
1<
1K
1L
#795000
0%
0<
0K
0L
#800000
1%
1<
1K
1L
#805000
0%
0<
0K
0L
#810000
1%
1<
1K
1L
#815000
0%
0<
0K
0L
#820000
1%
1<
1K
1L
#825000
0%
0<
0K
0L
#830000
1%
1<
1K
1L
#835000
0%
0<
0K
0L
#840000
1%
1<
1K
1L
#845000
0%
0<
0K
0L
#850000
1%
1<
1K
1L
#855000
0%
0<
0K
0L
#860000
1%
1<
1K
1L
#865000
0%
0<
0K
0L
#870000
1%
1<
1K
1L
#875000
0%
0<
0K
0L
#880000
1%
1<
1K
1L
#885000
0%
0<
0K
0L
#890000
1%
1<
1K
1L
#895000
0%
0<
0K
0L
#900000
1%
1<
1K
1L
#905000
0%
0<
0K
0L
#910000
1%
1<
1K
1L
#915000
0%
0<
0K
0L
#920000
1%
1<
1K
1L
#925000
0%
0<
0K
0L
#930000
1%
1<
1K
1L
#935000
0%
0<
0K
0L
#940000
1%
1<
1K
1L
#945000
0%
0<
0K
0L
#950000
1%
1<
1K
1L
#955000
0%
0<
0K
0L
#960000
1%
1<
1K
1L
#965000
0%
0<
0K
0L
#970000
1%
1<
1K
1L
#975000
0%
0<
0K
0L
#980000
1%
1<
1K
1L
#985000
0%
0<
0K
0L
#990000
1%
1<
1K
1L
#995000
0%
0<
0K
0L
